[
    {
        "image":"gandhaamit.jpg",
        "bridename": "Gandha",
        "groomname":"Amit",
        "review":"We loved the Online Invitations by Weddingo. It was trendy, cool and something very unique! It was a great experience.",
        "link": "https://gandhawedsamit.weddingo.in/"
    },{
        "image":"mohika1.jpg",
        "bridename": "Anshika",
        "groomname":"Mohit",
        "review":"Weddingo is amazing, they did a fantastic job with our invites. Very professional and quick service.",
        "link": "http://mohitwedsanshika.weddingo.in//"
    },{
        "image":"shalinivijesh.jpg",
        "bridename": "Shalini",
        "groomname":"Vijesh",
        "review":"We loved the way weddingo presented our online wedding invitation card. It was something different and amazing. Our friends were amazed.",
        "link": "https://shaliniwedsvijesh.weddingo.in/"
    }, {
        "image":"nileshsuchita.jpg",
        "bridename": "Suchita",
        "groomname":"Nilesh",
        "review":"Richard and his team are just magic! They did the most beautiful invitation for our wedding. From the family section to gallery, and the venue details. Easy to work with,great ideas and suggestions, highly experienced and professional.",
        "link": "https://nileshwedsuchita.weddingo.in/"
    },{
        "image":"priyankachirag.jpg",
        "bridename": "Priyanka",
        "groomname":"Chirag",
        "review":"The online invitation card by Weddingo was perfect to send our family and friends and customised according to our needs. This is a great initiative to go paperless.",
        "link": "https://priyankawedschirag.weddingo.in/"
    },
    {
        "image":"shraddhasiddhesh.jpg",
        "bridename": "Shraddha",
        "groomname":"Siddhesh",
        "review":"I found designing our wedding invitations with weddingo to be fun and exciting. They had a huge range of templates to choose from which is ideal for any Wedding theme",
        "link": "https://shraddhawedssiddhesh.weddingo.in/"
    },
    {
        "image":"nehawedsanket.jpg",
        "bridename": "Neha",
        "groomname":"Sanket",
        "review":"Our wedding invitation was flawless. Weddingo went above & beyond the call of the duty to make sure that they was exactly as we wanted. We were so happy with them, couldn't be happier with the prompt and friendly service.",
        "link": "http://sanketwedsneha.weddingo.in/"
    },
    {
        "image":"roshwita.jpg",
        "bridename": "Shweta",
        "groomname":"Rohit",
        "review":"Great work by Weddingo team. Thanks for making such an unique invitation for our wedding. This was not only an invitation but a website which depicted our love story and our bonding. Whenever we look at the website it cherishes all our memories.",
        "link": "https://roshweita.in/"
    },
    {
        "image":"aditikarthik.jpg",
        "bridename": "Aditi",
        "groomname":"Karthik",
        "review":"Weddingo were amazing designers and great with production! I got exactly what I envisioned. Abhay brought my initial thoughts to life and it was fun to see our custom invite pack get made. I highly recommend Weddingo to anyone out there.",
        "link": "https://aditiwedskarthik.weddingo.in/"
    },
    {
        "image":"aksita.png",
        "bridename": "Ishita",
        "groomname":"Akshay",
        "review":"Wedddingo did a fantastic job while making our online invitation card which was perfectly customised according to our needs. We loved and had great fun sharing it with our family and friends. It was a unique and memorable experience for our wedding.",
        "link": ""
    },
    {
        "image":"anjalirohann.jpg",
        "bridename": "Anjali",
        "groomname":"Rohan",
        "review":"Weddingo did an amazing job in making our online wedding invitation. We had a lot of fun designing it and sharing it. It was a very unique approach and was very pleasing.",
        "link": ""
     }

    
   

]

