[
    {
        "name": "TRADITIONAL",
        "code": "traditional",
        "images": [
            {
                "img": "save_it3.png",
                "desc": ""
            }, {
                "img": "saveit_t2.jpg",
                "desc": ""
            }, {
                "img": "saveit_t1.jpg",
                "desc": ""
            }
		]
	},
    {
        "name": "MOVIE THEME",
        "code": "movie-theme",
        "images": []
	},
    {
        "name": "MODERN",
        "code": "modern",
        "images": [
            {
                "img": "save_it2.png",
                "desc": ""
			}, {
                "img": "save_it4.png",
                "desc": ""
			}, {
                "img": "save_itochredoodle.png",
                "desc": ""
			}, {
                "img": "save_itsunflower.png",
                "desc": ""
			}, {
                "img": "save_itfishy.png",
                "desc": ""
			}, {
                "img": "save_itwhite.jpg",
                "desc": ""
			}, {
                "img": "save_itflowers.jpg",
                "desc": ""
			}
		]
	},
    {
        "name": "CHAT",
        "code": "chat",
        "images": [
            {
                "img": "save_it.png",
                "desc": ""
			}, {
                "img": "save_itgolden.jpg",
                "desc": ""
			},  {
                "img": "save_itsimpleblue.jpg",
                "desc": ""
			}
            
		]
	},
    {
        "name": "GAME OF THRONES",
        "code": "game-of-throne",
        "images": []
	}
]
